Linear Regression
…
This variable too shows some nonlinearity. Moreover, judging by the plot, there seems to be rather few observations before 2010. Let’s check this.

train_set |> filter(Modellår <= 2010)

# A tibble: 111 × 12
   Försäljningspris Säljare Bränsle    Växellåda Miltal Modellår Biltyp Drivning
              <dbl> <fct>   <fct>      <fct>      <dbl>    <dbl> <fct>  <fct>   
 1             9.39 Privat  Bensin     Manuell    28027     2001 Halvk… Tvåhjul…
 2            11.1  Privat  Diesel     Manuell    23298     2008 SUV    Fyrhjul…
 3            10.1  Privat  Miljöbrän… Manuell    21166     2007 Famil… Tvåhjul…
 4             9.77 Privat  Bensin     Manuell    17034     2007 Halvk… Tvåhjul…
 5             9.90 Privat  Bensin     Manuell    16900     2006 Halvk… Tvåhjul…
 6            10.9  Företag Bensin     Manuell    16598     2009 Halvk… Tvåhjul…
 7            10.8  Företag Bensin     Manuell     7184     2000 Halvk… Tvåhjul…
 8             9.21 Privat  Bensin     Manuell    29214     2000 Halvk… Tvåhjul…
 9             9.39 Privat  Diesel     Automat    25660     2010 Kombi  Tvåhjul…
10             9.90 Företag Bensin     Manuell    25031     2006 Halvk… Fyrhjul…
# ℹ 101 more rows
# ℹ 4 more variables: `Hästkrafter (HK)` <dbl>, Färg <fct>, Modell <fct>,
#   Region <fct>
…
Have every trained model predict the test set.

Record the mean prediction and actual response for every observation in the test set

Calculate the prediction interval lower and upper bounds and relative interval width

plot the actual response values against the mean predictions with relative interval width as a ribbon

Plot the response actual values against the relative interval widths

formula <- Försäljningspris ~ .
plot_prediction_intervals(train_val_baked, test_baked, formula)

$data
# A tibble: 180 × 5
   actual_y mean_prediction lower_pi_bound upper_pi_bound relative_interval_wi…¹
      <dbl>           <dbl>          <dbl>          <dbl>                  <dbl>
 1  129000          129407.         89455.        190491.                  0.781
 2  259900.         266699.        192387.        395969.                  0.763
 3  299900.         243323.        172465.        363220.                  0.784
 4   55000.          39871.         27814.         59696.                  0.800
 5   53500           48979.         34969.         72532.                  0.767
 6  218800          253789.        173560.        383689.                  0.828
 7  259800          288965.        204927.        413677.                  0.722
 8   55000.          94876.         69167.        138827.                  0.734
 9  249900.         266965.        189503.        374229.                  0.692
10  144000.          87379.         60479.        126758.                  0.759
# ℹ 170 more rows
# ℹ abbreviated name: ¹​relative_interval_width
…
